…
```r
mean_steps_day <- activity %>%
    group_by(date) %>%
    drop_na() %>% 
    summarize(
        mean.steps = mean(steps),
        interval = sum(interval)
    )

mean_steps_day
```

```
## # A tibble: 53 x 3
##    date       mean.steps interval
##    <date>          <dbl>    <dbl>
##  1 2012-10-02      0.438   339120
##  2 2012-10-03     39.4     339120
##  3 2012-10-04     42.1     339120
##  4 2012-10-05     46.2     339120
##  5 2012-10-06     53.5     339120
##  6 2012-10-07     38.2     339120
##  7 2012-10-09     44.5     339120
##  8 2012-10-10     34.4     339120
##  9 2012-10-11     35.8     339120
## 10 2012-10-12     60.4     339120
## # … with 43 more rows
```
…
```r
median_steps_day <- activity %>% 
    group_by(date) %>% 
    drop_na() %>%
    filter(steps != 0) %>% 
    summarize(
        median.steps = median(steps),
        interval = sum(interval)
    )

median_steps_day
```

```
## # A tibble: 53 x 3
##    date       median.steps interval
##    <date>            <dbl>    <dbl>
##  1 2012-10-02         63       4425
##  2 2012-10-03         61      97695
##  3 2012-10-04         56.5   125300
##  4 2012-10-05         66      95090
##  5 2012-10-06         67     132435
##  6 2012-10-07         52.5   138005
##  7 2012-10-09         48     118665
##  8 2012-10-10         56.5   132915
##  9 2012-10-11         35      92745
## 10 2012-10-12         46     138400
## # … with 43 more rows
```
…
```r
mean_interval <- activity %>%
    drop_na() %>% 
    group_by(interval) %>% 
    summarize(
        mean.steps = mean(steps)
    )

mean_interval
```

```
## # A tibble: 288 x 2
##    interval mean.steps
##       <dbl>      <dbl>
##  1        0     1.72  
##  2        5     0.340 
##  3       10     0.132 
##  4       15     0.151 
##  5       20     0.0755
##  6       25     2.09  
##  7       30     0.528 
##  8       35     0.868 
##  9       40     0     
## 10       45     1.47  
## # … with 278 more rows
```
…
## Which 5-minute interval, on average across all the days in the dataset, contains the maximum number of steps?


```r
mean_interval %>% 
    group_by(interval) %>% 
    arrange(desc(mean.steps))
```

```
## # A tibble: 288 x 2
## # Groups:   interval [288]
##    interval mean.steps
##       <dbl>      <dbl>
##  1      835       206.
##  2      840       196.
##  3      850       183.
##  4      845       180.
##  5      830       177.
##  6      820       171.
##  7      855       167.
##  8      815       158.
##  9      825       155.
## 10      900       143.
## # … with 278 more rows
```
…
```r
imean_steps_day <- iactivity %>%
    group_by(date) %>%
    summarize(
        mean.steps = mean(steps),
        interval = sum(interval)
    )

imean_steps_day
```

```
## # A tibble: 61 x 3
##    date       mean.steps interval
##    <date>          <dbl>    <dbl>
##  1 2012-10-01      0       339120
##  2 2012-10-02      0.872   339120
##  3 2012-10-03     67.7     339120
##  4 2012-10-04     69.5     339120
##  5 2012-10-05     78.5     339120
##  6 2012-10-06     87.4     339120
##  7 2012-10-07     62.2     339120
##  8 2012-10-08      0       339120
##  9 2012-10-09     74.3     339120
## 10 2012-10-10     56.3     339120
## # … with 51 more rows
```
…
```r
imedian_steps_day <- iactivity %>% 
    group_by(date) %>%
    summarize(
        median.steps = median(steps),
        interval = sum(interval)
    )

imedian_steps_day
```

```
## # A tibble: 61 x 3
##    date       median.steps interval
##    <date>            <dbl>    <dbl>
##  1 2012-10-01        0       339120
##  2 2012-10-02        0.438   339120
##  3 2012-10-03       39.4     339120
##  4 2012-10-04       42.1     339120
##  5 2012-10-05       46.2     339120
##  6 2012-10-06       53.5     339120
##  7 2012-10-07       38.2     339120
##  8 2012-10-08        0       339120
##  9 2012-10-09       44.5     339120
## 10 2012-10-10       34.4     339120
## # … with 51 more rows
```
…
